<svg version="1.1" id="Warstwa_1" xmlns="http://www.w3.org/2000/svg" xmlns:xlink="http://www.w3.org/1999/xlink" x="0px" y="0px"
	 viewBox="0 0 200 80" style="enable-background:new 0 0 200 80;" xml:space="preserve">
<style type="text/css">
	.st0{fill:#00ADEE;}
	.st1{fill:#231F20;}
</style>
<g>
	<path d="M34.5,19.8h3.5v6.6v2.9c1.7-2.4,4.4-3.4,6.7-3.5c4.7,0,9.3,3.5,9.3,9.6c0,5.9-4.2,9.7-9.4,9.7c-3.1,0-5.5-1.5-6.7-3.7v3.2
		h-3.4V19.8z M50.4,35.5c0-3.6-2.7-6.4-6.3-6.4c-3.8,0-6.3,2.9-6.3,6.4c0,3.5,2.5,6.4,6.2,6.4C48.2,41.9,50.4,38.7,50.4,35.5
		L50.4,35.5z"/>
	<path d="M63.5,26.3h3.3V29c1-2.1,3-3.2,5.4-3.2v3.5h-0.2c-3.3,0-5,1.8-5,5.4v9.9h-3.5V26.3z"/>
	<path class="st0" d="M81.9,26.3h3.5v18.3h-3.5V26.3z M81.2,21.5c0,1.3,1,2.3,2.3,2.3c1.3,0,2.3-1,2.3-2.3c0-1.3-1-2.3-2.3-2.3
		C82.2,19.2,81.2,20.2,81.2,21.5z"/>
	<path class="st0" d="M95.3,29.1H92v-2.7h3.3v-6.6h3.5v6.6h3.5v2.7h-3.5v15.5h-3.5V29.1z"/>
	<path d="M112,36.6c0.2,3.7,3.4,5.6,6.1,5.6c2.4,0,4.3-1.2,5.3-3.1h3.6c-0.9,2-2.1,3.5-3.7,4.5c-1.5,1-3.4,1.5-5.2,1.5
		c-6,0-9.7-4.8-9.7-9.6c0-5.2,4.1-9.7,9.6-9.7c2.6,0,5,1,6.7,2.7c2.1,2.2,3,5,2.8,8.1H112z M124.2,33.9c-0.2-2.4-2.6-5.1-6-5.1
		c-3.6,0-5.9,2.6-6,5.1H124.2z"/>
	<path d="M137.6,26.3h3.3v2.8c0.9-1.9,2.9-3.4,6.2-3.4c5.8,0.1,7.4,4.3,7.4,8.1v10.7h-3.5v-9.9c0-3.3-1.3-5.6-4.8-5.6
		c-3.4,0-5,2.2-5,5.3v10.2h-3.5V26.3z"/>
	<path d="M167.8,36.6c0.2,3.7,3.4,5.6,6.1,5.6c2.5,0,4.3-1.2,5.3-3.1h3.6c-0.9,2-2.2,3.5-3.7,4.5c-1.5,1-3.4,1.5-5.2,1.5
		c-6,0-9.7-4.8-9.7-9.6c0-5.2,4.1-9.7,9.6-9.7c2.6,0,5,1,6.8,2.7c2.1,2.2,3.1,5,2.8,8.1H167.8z M179.9,33.9c-0.2-2.4-2.6-5.1-6-5.1
		c-3.6,0-5.9,2.6-6,5.1H179.9z"/>
	<path d="M193,29.1h-3.3v-2.7h3.3v-6.6h3.5v6.6h3.5v2.7h-3.5v15.5H193V29.1z"/>
	<ellipse class="st0" cx="12.3" cy="32.2" rx="12.3" ry="12.3"/>
	<g>
		<path class="st1" d="M49.6,59.2h-0.8v-0.7c-0.2,0.4-0.7,0.9-1.6,0.9c-1.3,0-2.2-1-2.2-2.2c0-1.3,0.9-2.2,2.1-2.2
			c0.9,0,1.4,0.5,1.6,0.8v-0.7v-1.5h0.8V59.2z M45.9,57.1c0,0.8,0.6,1.5,1.5,1.5c0.4,0,0.8-0.2,1.1-0.4c0.3-0.3,0.4-0.6,0.4-1.1
			c0-0.4-0.2-0.8-0.4-1c-0.3-0.3-0.6-0.4-1-0.4C46.5,55.6,45.9,56.3,45.9,57.1L45.9,57.1z"/>
		<path class="st1" d="M52.7,57.1c0-1.1,0.8-2.2,2.2-2.2c1.4,0,2.2,1.1,2.2,2.2c0,1.1-0.8,2.2-2.2,2.2
			C53.5,59.3,52.7,58.2,52.7,57.1L52.7,57.1z M53.5,57.1c0,0.8,0.6,1.5,1.4,1.5c0.8,0,1.4-0.6,1.4-1.5c0-0.8-0.6-1.5-1.4-1.5
			C54.1,55.6,53.5,56.2,53.5,57.1L53.5,57.1z"/>
		<path class="st1" d="M60.3,53.4h0.8V55v0.7c0.4-0.6,1-0.8,1.6-0.8c1.1,0,2.1,0.8,2.1,2.2c0,1.4-1,2.2-2.2,2.2
			c-0.7,0-1.3-0.3-1.6-0.9v0.7h-0.8V53.4z M64,57.1c0-0.8-0.6-1.5-1.5-1.5c-0.9,0-1.5,0.7-1.5,1.5c0,0.8,0.6,1.5,1.4,1.5
			C63.5,58.6,64,57.8,64,57.1L64,57.1z"/>
		<path class="st1" d="M67.9,55h0.8v0.6c0.2-0.5,0.7-0.7,1.3-0.7v0.8h-0.1c-0.8,0-1.2,0.4-1.2,1.3v2.3h-0.8V55z"/>
		<path class="st1" d="M73.9,59.1L72.3,55h0.9l1.2,3.1l1.2-3.1h0.9l-2.3,5.8h-0.9L73.9,59.1z"/>
		<path class="st1" d="M83.8,53.4h0.8v3.2l1.7-1.7h1l-1.9,1.9l1.9,2.4h-0.9L84.6,57v2.2h-0.8V53.4z"/>
		<path class="st1" d="M90.2,53.4H91v5.7h-0.8V53.4z"/>
		<path class="st1" d="M94.3,53.4h0.8v0.9h-0.8V53.4z M94.3,55h0.8v4.2h-0.8V55z"/>
		<path class="st1" d="M98.5,55h0.8v0.6c0.2-0.4,0.7-0.7,1.3-0.7c0.4,0,0.8,0.1,1.1,0.5c0.1,0.1,0.2,0.3,0.3,0.4
			c0.1-0.1,0.2-0.3,0.3-0.4c0.3-0.3,0.7-0.4,1.1-0.4c0.4,0,0.8,0.1,1.1,0.4c0.4,0.4,0.5,0.8,0.5,1.6v2.3h-0.8v-2.3
			c0-0.3,0-0.7-0.2-0.9c-0.1-0.2-0.4-0.3-0.8-0.3c-0.4,0-0.7,0.1-0.8,0.4c-0.2,0.3-0.2,0.5-0.2,0.9v2.3h-0.8v-2.3
			c0-0.3,0-0.6-0.2-0.8c-0.2-0.2-0.4-0.4-0.8-0.4c-0.4,0-0.7,0.2-0.8,0.4c-0.2,0.2-0.2,0.5-0.2,0.9v2.3h-0.8V55z"/>
		<path class="st1" d="M112.5,59.2h-0.8v-0.7c-0.3,0.6-0.9,0.9-1.6,0.9c-1.4,0-2.2-1.1-2.2-2.2c0-1.3,0.9-2.2,2.2-2.2
			c0.8,0,1.4,0.5,1.6,0.9V55h0.8V59.2z M108.8,57.1c0,0.6,0.4,1.5,1.5,1.5c0.6,0,1.1-0.4,1.3-0.8c0.1-0.2,0.1-0.4,0.1-0.6
			c0-0.2,0-0.4-0.1-0.6c-0.2-0.5-0.7-0.9-1.3-0.9C109.4,55.6,108.8,56.3,108.8,57.1L108.8,57.1z"/>
		<path class="st1" d="M116.2,55.6h-0.8V55h0.8v-1.5h0.8V55h0.8v0.6H117v3.6h-0.8V55.6z"/>
		<path class="st1" d="M129.5,59.2h-0.8v-0.7c-0.2,0.4-0.7,0.9-1.6,0.9c-1.3,0-2.2-1-2.2-2.2c0-1.3,0.9-2.2,2.1-2.2
			c0.9,0,1.4,0.5,1.6,0.8v-0.7v-1.5h0.8V59.2z M125.8,57.1c0,0.8,0.6,1.5,1.5,1.5c0.4,0,0.8-0.2,1.1-0.4c0.3-0.3,0.4-0.6,0.4-1.1
			c0-0.4-0.2-0.8-0.4-1c-0.3-0.3-0.6-0.4-1-0.4C126.4,55.6,125.8,56.3,125.8,57.1L125.8,57.1z"/>
		<path class="st1" d="M132.6,57.1c0-1.1,0.8-2.2,2.2-2.2c1.4,0,2.2,1.1,2.2,2.2c0,1.1-0.8,2.2-2.2,2.2
			C133.5,59.3,132.6,58.2,132.6,57.1L132.6,57.1z M133.4,57.1c0,0.8,0.6,1.5,1.4,1.5c0.8,0,1.4-0.6,1.4-1.5c0-0.8-0.6-1.5-1.4-1.5
			C134.1,55.6,133.4,56.2,133.4,57.1L133.4,57.1z"/>
		<path class="st1" d="M144.8,55h0.8v0.6c0.2-0.5,0.7-0.7,1.3-0.7v0.8h-0.1c-0.8,0-1.2,0.4-1.2,1.3v2.3h-0.8V55z"/>
		<path class="st1" d="M149.5,57.1c0-1.1,0.8-2.2,2.2-2.2c1.4,0,2.2,1.1,2.2,2.2c0,1.1-0.8,2.2-2.2,2.2
			C150.3,59.3,149.5,58.2,149.5,57.1L149.5,57.1z M150.3,57.1c0,0.8,0.6,1.5,1.4,1.5c0.8,0,1.4-0.6,1.4-1.5c0-0.8-0.6-1.5-1.4-1.5
			C150.9,55.6,150.3,56.2,150.3,57.1L150.3,57.1z"/>
		<path class="st1" d="M156.6,58.6l2.1-3h-2.1V55h3v0.6l-2.1,3h2.1v0.6h-3.1V58.6z"/>
		<path class="st1" d="M162.2,55h0.8l1,3.2l0.9-2.9h0.7l0.9,2.9l1-3.2h0.8l-1.4,4.2h-0.8l-0.9-3l-0.9,3h-0.8L162.2,55z"/>
		<path class="st1" d="M171,57.1c0-1.1,0.8-2.2,2.2-2.2c1.4,0,2.2,1.1,2.2,2.2c0,1.1-0.8,2.2-2.2,2.2C171.8,59.3,171,58.2,171,57.1
			L171,57.1z M171.8,57.1c0,0.8,0.6,1.5,1.4,1.5s1.4-0.6,1.4-1.5c0-0.8-0.6-1.5-1.4-1.5S171.8,56.2,171.8,57.1L171.8,57.1z"/>
		<path class="st1" d="M179.6,59.1c0,0.8-0.1,1.6-1.3,1.7c-0.1,0-0.1,0-0.2,0v-0.6c0,0,0.1,0,0.1,0c0.6-0.1,0.6-0.5,0.6-1V55h0.8
			V59.1z M178.8,53.4h0.8v0.9h-0.8V53.4z"/>
		<path class="st1" d="M186.9,59.2h-0.8v-0.7c-0.2,0.4-0.7,0.8-1.4,0.8c-1.4,0-1.7-1-1.7-1.9V55h0.8v2.3c0,0.8,0.3,1.3,1.1,1.3
			c0.8,0,1.2-0.5,1.2-1.2V55h0.8V59.2z"/>
	</g>
</g>
</svg>
